…
First, we will rearrange the data to calculate the difference between
the treatment (`Y1`) and control outcomes (`Y0`) within each pair:

``` r
paired.dat <- rct_dat %>%
  select(P = match, Tr, taks08) %>%
  pivot_wider(values_from = taks08, names_from = Tr,
              names_prefix = "Y") %>%
  mutate(dif = Y1 - Y0)

paired.dat
```

    ## # A tibble: 25 × 4
    ##    P        Y0    Y1   dif
    ##    <fct> <dbl> <dbl> <dbl>
    ##  1 A        76    87    11
    ##  2 B        91    68   -23
    ##  3 C        90    94     4
    ##  4 D        72    89    17
    ##  5 E        92    71   -21
    ##  6 F        79    84     5
    ##  7 G        88    84    -4
    ##  8 H        82    73    -9
    ##  9 I        91    86    -5
    ## 10 J        93    87    -6
    ## # ℹ 15 more rows
…
